/home/ziani/MyEclipseWorkingSpace/EIP/src/main/java/fr/univ/app/ProducerConsumer.java
/home/ziani/MyEclipseWorkingSpace/EIP/src/main/java/fr/univ/config/AppConfig.java
/home/ziani/MyEclipseWorkingSpace/EIP/src/main/java/fr/univ/app/MyAggregationStrategy.java
